Get toplevel sequences by species — get_toplevel_sequences • ensemblr
…
coord_system
Coordinate system type.

toplevel_sequence
Name of the toplevel sequence.

length
Genomic length toplevel sequence in base pairs.

    Examples

# Get toplevel sequences for the human genome (default)
get_toplevel_sequences()
#> # A tibble: 194 × 4
#>    species_name coord_system toplevel_sequence length
#>    <chr>        <chr>        <chr>              <int>
#>  1 homo_sapiens scaffold     KI270757.1         71251
#>  2 homo_sapiens scaffold     KI270741.1        157432
#>  3 homo_sapiens scaffold     KI270756.1         79590
#>  4 homo_sapiens scaffold     KI270730.1        112551
#>  5 homo_sapiens scaffold     KI270739.1         73985
#>  6 homo_sapiens scaffold     KI270738.1         99375
#>  7 homo_sapiens scaffold     KI270737.1        103838
#>  8 homo_sapiens scaffold     KI270312.1           998
#>  9 homo_sapiens scaffold     KI270591.1          5796
#> 10 homo_sapiens scaffold     KI270371.1          2805
#> # ℹ 184 more rows
…
