Retrieve variant sources — get_variation_sources • ensemblr
…
data_types
Data types to be found at database.

    Ensembl REST API endpoints

    get_variation_sources makes GET requests to
info/variation/:species.

    Examples

# Retrieve variant sources for human (default)
get_variation_sources()
#> # A tibble: 37 × 8
#>    species_name db_name           type  version somatic_status description url  
#>    <chr>        <chr>             <chr> <chr>   <chr>          <chr>       <chr>
#>  1 human        dbSNP             NA    154     mixed          Variants (… http…
#>  2 human        Archive dbSNP     NA    154     mixed          Former dbS… http…
#>  3 human        dbSNP HGVS        NA    154     mixed          HGVS annot… http…
#>  4 human        Former dbSNP      NA    154     mixed          Former dbS… http…
#>  5 human        PharmGKB          NA    28/02/… germline       A pharmaco… http…
#>  6 human        HGMD-PUBLIC       NA    2020.4  germline       Variants f… http…
#>  7 human        DGVa              NA    01/2020 mixed          Database o… http…
#>  8 human        NHGRI-EBI GWAS c… NA    03/03/… germline       Variants a… http…
#>  9 human        EGA               NA    03/2023 germline       Variants i… http…
#> 10 human        UniProt           NA    28/02/… mixed          Variants w… http…
#> # ℹ 27 more rows
#> # ℹ 1 more variable: data_types <list>
…
