Get the karyotype of a species — get_karyotypes • ensemblr
…
# Get the karyotype of the Giant panda
get_karyotypes('ailuropoda_melanoleuca')
#> # A tibble: 21 × 4
#>    species_name           coord_system     chromosome    length
#>    <chr>                  <chr>            <chr>          <int>
#>  1 ailuropoda_melanoleuca primary_assembly 1          212770937
#>  2 ailuropoda_melanoleuca primary_assembly 2          199809881
#>  3 ailuropoda_melanoleuca primary_assembly 3          147627920
#>  4 ailuropoda_melanoleuca primary_assembly 4          144794249
#>  5 ailuropoda_melanoleuca primary_assembly 5          130990914
#>  6 ailuropoda_melanoleuca primary_assembly 6          131587389
#>  7 ailuropoda_melanoleuca primary_assembly 7          141533052
#>  8 ailuropoda_melanoleuca primary_assembly 8          129245720
#>  9 ailuropoda_melanoleuca primary_assembly 9          103688518
#> 10 ailuropoda_melanoleuca primary_assembly 10         110580333
#> # ℹ 11 more rows
…
