Get toplevel sequences details — get_toplevel_sequence_info • ensemblr
…
assembly_name
Assembly name.

length
Genomic length toplevel sequence in base pairs.

    See also

    get_toplevel_sequences()

    Examples

# Get details about human chromosomes (default)
get_toplevel_sequence_info()
#> # A tibble: 25 × 8
#>    species_name toplevel_sequence is_chromosome coordinate_system
#>    <chr>        <chr>             <lgl>         <chr>            
#>  1 homo_sapiens 1                 TRUE          chromosome       
#>  2 homo_sapiens 2                 TRUE          chromosome       
#>  3 homo_sapiens 3                 TRUE          chromosome       
#>  4 homo_sapiens 4                 TRUE          chromosome       
#>  5 homo_sapiens 5                 TRUE          chromosome       
#>  6 homo_sapiens 6                 TRUE          chromosome       
#>  7 homo_sapiens 7                 TRUE          chromosome       
#>  8 homo_sapiens 8                 TRUE          chromosome       
#>  9 homo_sapiens 9                 TRUE          chromosome       
#> 10 homo_sapiens 10                TRUE          chromosome       
#> # ℹ 15 more rows
#> # ℹ 4 more variables: assembly_exception_type <chr>, is_circular <lgl>,
#> #   assembly_name <chr>, length <int>
…
